\relax 
\providecommand\hyper@newdestlabel[2]{}
\bibdata{../../biblio//biblio}
\bibcite{Heraclite}{1}
\bibcite{Bradley01011727}{2}
\bibcite{libframes}{3}
\bibcite{edwards:2013}{4}
\@writefile{toc}{\contentsline {chapter}{Bibliographie}{12}{subsection.1.5.4}}
\@setckpt{biblio}{
\setcounter{page}{13}
\setcounter{equation}{43}
\setcounter{enumi}{0}
\setcounter{enumii}{0}
\setcounter{enumiii}{0}
\setcounter{enumiv}{4}
\setcounter{footnote}{0}
\setcounter{mpfootnote}{0}
\setcounter{part}{0}
\setcounter{chapter}{0}
\setcounter{section}{0}
\setcounter{subsection}{4}
\setcounter{subsubsection}{0}
\setcounter{paragraph}{0}
\setcounter{subparagraph}{0}
\setcounter{figure}{1}
\setcounter{table}{0}
\setcounter{FBcaption@count}{0}
\setcounter{parentequation}{0}
\setcounter{Item}{0}
\setcounter{Hfootnote}{0}
\setcounter{bookmark@seq@number}{16}
\setcounter{ContinuedFloat}{0}
\setcounter{subfigure}{0}
\setcounter{subtable}{0}
\setcounter{su@anzahl}{0}
\setcounter{LT@tables}{0}
\setcounter{LT@chunks}{0}
\setcounter{section@level}{0}
}
