\relax 
\providecommand\hyper@newdestlabel[2]{}
\@writefile{toc}{\contentsline {chapter}{\numberline {1}Gravitational waves}{1}{chapter.1}}
\@writefile{lof}{\addvspace {10\p@ }}
\@writefile{lot}{\addvspace {10\p@ }}
\newlabel{sec:chap1}{{1}{1}{Gravitational waves}{chapter.1}{}}
\@writefile{toc}{\contentsline {section}{\numberline {1.1}General Relativity}{1}{section.1.1}}
\newlabel{sec:GR}{{1.1}{1}{General Relativity}{section.1.1}{}}
\@writefile{toc}{\contentsline {subsection}{\numberline {1.1.1}Geometry in general relativity}{1}{subsection.1.1.1}}
\newlabel{distance}{{1.4}{2}{Geometry in general relativity}{equation.1.1.4}{}}
\@writefile{toc}{\contentsline {subsection}{\numberline {1.1.2}The Einstein Equation}{2}{subsection.1.1.2}}
\newlabel{einstein}{{1.5}{2}{The Einstein Equation}{equation.1.1.5}{}}
\newlabel{christofel}{{1.6}{2}{The Einstein Equation}{equation.1.1.6}{}}
\newlabel{riemann}{{1.7}{2}{The Einstein Equation}{equation.1.1.7}{}}
\newlabel{ricci-tensor}{{1.8}{2}{The Einstein Equation}{equation.1.1.8}{}}
\newlabel{ricci-scalar}{{1.9}{2}{The Einstein Equation}{equation.1.1.9}{}}
\newlabel{einstein-tensor}{{1.10}{2}{The Einstein Equation}{equation.1.1.10}{}}
\newlabel{poisson}{{1.11}{3}{The Einstein Equation}{equation.1.1.11}{}}
\newlabel{newton-limit}{{1.12}{3}{The Einstein Equation}{equation.1.1.12}{}}
\@writefile{toc}{\contentsline {section}{\numberline {1.2}Linearized General Relativity}{3}{section.1.2}}
\newlabel{sec:GRlinearized}{{1.2}{3}{Linearized General Relativity}{section.1.2}{}}
\newlabel{metric-perturbation}{{1.14}{3}{Linearized General Relativity}{equation.1.2.14}{}}
\newlabel{einstein-linearized}{{1.15}{3}{Linearized General Relativity}{equation.1.2.15}{}}
\newlabel{trace-reversed-metric}{{1.16}{3}{Linearized General Relativity}{equation.1.2.16}{}}
\newlabel{coordinate-change}{{1.17}{3}{Linearized General Relativity}{equation.1.2.17}{}}
\newlabel{lorenz-gauge}{{1.19}{4}{Linearized General Relativity}{equation.1.2.19}{}}
\newlabel{waves}{{1.20}{4}{Linearized General Relativity}{equation.1.2.20}{}}
\@writefile{toc}{\contentsline {section}{\numberline {1.3}Gravitational Waves In Vacuum}{4}{section.1.3}}
\newlabel{sec:GRvacuum}{{1.3}{4}{Gravitational Waves In Vacuum}{section.1.3}{}}
\@writefile{toc}{\contentsline {subsection}{\numberline {1.3.1}Generalities}{4}{subsection.1.3.1}}
\newlabel{waves-vacuum}{{1.21}{4}{Generalities}{equation.1.3.21}{}}
\newlabel{waves-plane}{{1.22}{4}{Generalities}{equation.1.3.22}{}}
\newlabel{wave-vector-condition}{{1.23}{4}{Generalities}{equation.1.3.23}{}}
\newlabel{vector-amplitude-condition}{{1.24}{4}{Generalities}{equation.1.3.24}{}}
\newlabel{h-tt-conditions}{{1.25}{5}{Generalities}{equation.1.3.25}{}}
\newlabel{amplitude-conditions}{{1.26}{5}{Generalities}{equation.1.3.26}{}}
\@writefile{toc}{\contentsline {subsection}{\numberline {1.3.2}Example}{5}{subsection.1.3.2}}
\newlabel{h-matrix}{{1.32}{6}{Example}{equation.1.3.32}{}}
\newlabel{h-solution}{{1.33}{6}{Example}{equation.1.3.33}{}}
\@writefile{toc}{\contentsline {subsection}{\numberline {1.3.3}Gravitational waves effect on matter }{6}{subsection.1.3.3}}
\newlabel{distance-tt-gauge}{{1.34}{6}{Gravitational waves effect on matter }{equation.1.3.34}{}}
\newlabel{distance-relative}{{1.37}{6}{Gravitational waves effect on matter }{equation.1.3.37}{}}
\@writefile{lof}{\contentsline {figure}{\numberline {1.1}{\ignorespaces Effect of a passing gravitational wave propagating in the z=0 plan, with plus polarization (top) and cross polarization (bottom) on a ring of freely-falling particles.\relax }}{7}{figure.caption.1}}
\providecommand*\caption@xref[2]{\@setref\relax\@undefined{#1}}
\newlabel{fig:gw-effect}{{1.1}{7}{Effect of a passing gravitational wave propagating in the z=0 plan, with plus polarization (top) and cross polarization (bottom) on a ring of freely-falling particles.\relax }{figure.caption.1}{}}
\@writefile{toc}{\contentsline {section}{\numberline {1.4}Gravitational Wave Generation}{7}{section.1.4}}
\newlabel{sec:GWgeneration}{{1.4}{7}{Gravitational Wave Generation}{section.1.4}{}}
\@writefile{toc}{\contentsline {section}{\numberline {1.5}Gravitational Waves Sources}{8}{section.1.5}}
\newlabel{sec:GWsources}{{1.5}{8}{Gravitational Waves Sources}{section.1.5}{}}
\@writefile{toc}{\contentsline {subsection}{\numberline {1.5.1}Compact Binary Coalescence}{8}{subsection.1.5.1}}
\@writefile{toc}{\contentsline {subsection}{\numberline {1.5.2}Continuous Waves}{9}{subsection.1.5.2}}
\@writefile{toc}{\contentsline {subsection}{\numberline {1.5.3}Stochastic Gravitational Wave Background}{9}{subsection.1.5.3}}
\@writefile{toc}{\contentsline {subsection}{\numberline {1.5.4}Gravitational Wave Bursts}{9}{subsection.1.5.4}}
\@setckpt{chap1}{
\setcounter{page}{11}
\setcounter{equation}{43}
\setcounter{enumi}{0}
\setcounter{enumii}{0}
\setcounter{enumiii}{0}
\setcounter{enumiv}{0}
\setcounter{footnote}{0}
\setcounter{mpfootnote}{0}
\setcounter{part}{0}
\setcounter{chapter}{1}
\setcounter{section}{5}
\setcounter{subsection}{4}
\setcounter{subsubsection}{0}
\setcounter{paragraph}{0}
\setcounter{subparagraph}{0}
\setcounter{figure}{1}
\setcounter{table}{0}
\setcounter{FBcaption@count}{0}
\setcounter{parentequation}{0}
\setcounter{Item}{0}
\setcounter{Hfootnote}{0}
\setcounter{bookmark@seq@number}{15}
\setcounter{ContinuedFloat}{0}
\setcounter{subfigure}{0}
\setcounter{subtable}{0}
\setcounter{su@anzahl}{0}
\setcounter{LT@tables}{0}
\setcounter{LT@chunks}{0}
\setcounter{section@level}{0}
}
