\begin{thebibliography}{1}

\bibitem{Heraclite}
Héraclite.
\newblock {\em Fragments}.

\bibitem{Bradley01011727}
James Bradley.
\newblock A letter from the reverend mr. james bradley savilian professor of
  astronomy at oxford, and f.r.s. to dr.edmond halley astronom. reg. \&c.
  giving an account of a new discovered motion of the fix'd stars.
\newblock {\em Philosophical Transactions}, 35(399-406):637--661, 1727.

\bibitem{libframes}
{Specification of a Common Data Frame Format for Interferometric Gravitational
  Wave Detectors (IGWD)}.

\bibitem{edwards:2013}
Mark Edwards.
\newblock {\em On the search for intermediate duration gravitational waves
  using the spherical harmonic basis}.
\newblock Thesis, University of Cardiff, 2013.

\end{thebibliography}
