\BOOKMARK [0][-]{chapter.1}{Gravitational waves}{}% 1
\BOOKMARK [1][-]{section.1.1}{General Relativity}{chapter.1}% 2
\BOOKMARK [2][-]{subsection.1.1.1}{Geometry in general relativity}{section.1.1}% 3
\BOOKMARK [2][-]{subsection.1.1.2}{The Einstein Equation}{section.1.1}% 4
\BOOKMARK [1][-]{section.1.2}{Linearized General Relativity}{chapter.1}% 5
\BOOKMARK [1][-]{section.1.3}{Gravitational Waves In Vacuum}{chapter.1}% 6
\BOOKMARK [2][-]{subsection.1.3.1}{Generalities}{section.1.3}% 7
\BOOKMARK [2][-]{subsection.1.3.2}{Example}{section.1.3}% 8
\BOOKMARK [2][-]{subsection.1.3.3}{Gravitational waves effect on matter }{section.1.3}% 9
\BOOKMARK [1][-]{section.1.4}{Gravitational Wave Generation}{chapter.1}% 10
\BOOKMARK [1][-]{section.1.5}{Gravitational Waves Sources}{chapter.1}% 11
\BOOKMARK [2][-]{subsection.1.5.1}{Compact Binary Coalescence}{section.1.5}% 12
\BOOKMARK [2][-]{subsection.1.5.2}{Continuous Waves}{section.1.5}% 13
\BOOKMARK [2][-]{subsection.1.5.3}{Stochastic Gravitational Wave Background}{section.1.5}% 14
\BOOKMARK [2][-]{subsection.1.5.4}{Gravitational Wave Bursts}{section.1.5}% 15
\BOOKMARK [0][-]{subsection.1.5.4}{Bibliographie}{}% 16
