\babel@toc {french}{}
\contentsline {chapter}{Introduction}{3}{Doc-Start}
\contentsline {chapter}{\numberline {1}Gravitational waves}{4}{chapter.1}
\contentsline {section}{\numberline {1.1}General Relativity}{4}{section.1.1}
\contentsline {subsection}{\numberline {1.1.1}Geometry in general relativity}{4}{subsection.1.1.1}
\contentsline {subsection}{\numberline {1.1.2}The Einstein Equation}{5}{subsection.1.1.2}
\contentsline {section}{\numberline {1.2}Linearized General Relativity}{6}{section.1.2}
\contentsline {section}{\numberline {1.3}Gravitational Waves In Vacuum}{7}{section.1.3}
\contentsline {subsection}{\numberline {1.3.1}Generalities}{7}{subsection.1.3.1}
\contentsline {subsection}{\numberline {1.3.2}Example}{8}{subsection.1.3.2}
\contentsline {subsection}{\numberline {1.3.3}Gravitational waves effect on matter }{9}{subsection.1.3.3}
\contentsline {section}{\numberline {1.4}Gravitational Wave Generation}{10}{section.1.4}
\contentsline {section}{\numberline {1.5}Gravitational Waves Sources}{11}{section.1.5}
\contentsline {subsection}{\numberline {1.5.1}Compact Binary Coalescence}{11}{subsection.1.5.1}
\contentsline {subsection}{\numberline {1.5.2}Continuous Waves}{12}{subsection.1.5.2}
\contentsline {subsection}{\numberline {1.5.3}Stochastic Gravitational Wave Background}{12}{subsection.1.5.3}
\contentsline {subsection}{\numberline {1.5.4}Gravitational Wave Bursts}{12}{subsection.1.5.4}
\contentsline {chapter}{Bibliographie}{15}{subsection.1.5.4}
